<?xml version="1.0" encoding="utf-8"?>
<COLLADA xmlns="http://www.collada.org/2005/11/COLLADASchema" version="1.4.1" xmlns:xsi="http://www.w3.org/2001/XMLSchema-instance">
  <asset>
    <contributor>
      <author>Blender User</author>
      <authoring_tool>Blender 3.1.0 commit date:2022-03-08, commit time:18:16, hash:c77597cd0e15</authoring_tool>
    </contributor>
    <created>2022-03-15T23:27:38</created>
    <modified>2022-03-15T23:27:38</modified>
    <unit name="meter" meter="1"/>
    <up_axis>Z_UP</up_axis>
  </asset>
  <library_effects>
    <effect id="Material_001-effect">
      <profile_COMMON>
        <technique sid="common">
          <lambert>
            <emission>
              <color sid="emission">0 0 0 1</color>
            </emission>
            <diffuse>
              <color sid="diffuse">0.8 0.8 0.8 1</color>
            </diffuse>
            <index_of_refraction>
              <float sid="ior">1.45</float>
            </index_of_refraction>
          </lambert>
        </technique>
      </profile_COMMON>
    </effect>
  </library_effects>
  <library_images/>
  <library_materials>
    <material id="Material_001-material" name="Material.001">
      <instance_effect url="#Material_001-effect"/>
    </material>
  </library_materials>
  <library_geometries>
    <geometry id="Cube_002-mesh" name="Cube.002">
      <mesh>
        <source id="Cube_002-mesh-positions">
          <float_array id="Cube_002-mesh-positions-array" count="450">-0.9 -0.9 -0.9 -0.9 -0.9 -0.9 -0.9 -0.9 -0.9 -0.9 -0.9 -0.9 -0.9 -0.9 -0.9 -0.9 -0.9 0.9 -0.9 -0.9 0.9 -0.9 -0.9 0.9 -0.9 -0.9 0.9 -0.9 -0.9 0.9 -0.9 0.9 -0.9 -0.9 0.9 -0.9 -0.9 0.9 -0.9 -0.9 0.9 -0.9 -0.9 0.9 -0.9 -0.9 0.9 0.9 -0.9 0.9 0.9 -0.9 0.9 0.9 0.9 -0.9 -0.9 0.9 -0.9 -0.9 0.9 -0.9 -0.9 0.9 -0.9 0.9 0.9 -0.9 0.9 0.9 -0.9 0.9 0.9 0.9 -0.9 0.9 0.9 -0.9 0.9 0.9 -0.9 0.9 0.9 0.9 0.9 0.9 0.9 0.9 0.9 0.9 1 1 1 1 1 1 1 1 1 1 1 1 1 1 -1 1 1 -1 1 1 -1 1 1 -1 1 -1 1 1 -1 1 1 -1 1 1 -1 1 1 -1 1 1 -1 -1 1 -1 -1 1 -1 -1 1 -1 -1 1 -1 -1 -1 1 1 -1 1 1 -1 1 1 -1 1 1 -1 1 1 -1 1 -1 -1 1 -1 -1 1 -1 -1 1 -1 -1 -1 1 -1 -1 1 -1 -1 1 -1 -1 1 -1 -1 1 -1 -1 1 -1 -1 -1 -1 -1 -1 -1 -1 -1 0.9 -0.9 1 0.9 -0.9 1 0.9 -0.9 1 0.9 -0.9 1 -0.9 0.9 1 -0.9 0.9 1 -0.9 0.9 1 0.9 0.9 1 0.9 0.9 1 0.9 0.9 1 -0.9 -0.9 1 -0.9 -0.9 1 -0.9 -0.9 1 -0.9 -0.9 1 -0.9 -1 -0.9 -0.9 -1 -0.9 -0.9 -1 -0.9 0.9 -1 0.9 0.9 -1 0.9 0.9 -1 0.9 0.9 -1 -0.9 0.9 -1 -0.9 0.9 -1 -0.9 0.9 -1 -0.9 -0.9 -1 0.9 -0.9 -1 0.9 -0.9 -1 0.9 -0.9 -1 0.9 -1 -0.9 -0.9 -1 -0.9 -0.9 -1 -0.9 -0.9 -1 0.9 -0.9 -1 0.9 -0.9 -1 0.9 -0.9 -1 -0.9 0.9 -1 -0.9 0.9 -1 -0.9 0.9 -1 -0.9 0.9 -1 0.9 0.9 -1 0.9 0.9 -1 0.9 0.9 -1 0.9 0.9 -0.9 -0.9 -1 -0.9 -0.9 -1 -0.9 -0.9 -1 0.9 0.9 -1 0.9 0.9 -1 0.9 0.9 -1 -0.9 0.9 -1 -0.9 0.9 -1 -0.9 0.9 -1 -0.9 0.9 -1 0.9 -0.9 -1 0.9 -0.9 -1 0.9 -0.9 -1 0.9 -0.9 -1 1 -0.9 -0.9 1 -0.9 -0.9 1 -0.9 -0.9 1 0.9 0.9 1 0.9 0.9 1 0.9 0.9 1 0.9 -0.9 1 0.9 -0.9 1 0.9 -0.9 1 0.9 -0.9 1 -0.9 0.9 1 -0.9 0.9 1 -0.9 0.9 1 -0.9 0.9 -0.9 1 -0.9 -0.9 1 -0.9 -0.9 1 -0.9 0.9 1 -0.9 0.9 1 -0.9 0.9 1 -0.9 -0.9 1 0.9 -0.9 1 0.9 -0.9 1 0.9 -0.9 1 0.9 0.9 1 0.9 0.9 1 0.9 0.9 1 0.9 0.9 1 0.9</float_array>
          <technique_common>
            <accessor source="#Cube_002-mesh-positions-array" count="150" stride="3">
              <param name="X" type="float"/>
              <param name="Y" type="float"/>
              <param name="Z" type="float"/>
            </accessor>
          </technique_common>
        </source>
        <source id="Cube_002-mesh-normals">
          <float_array id="Cube_002-mesh-normals-array" count="66">0 0 1 0 0 -1 1 0 0 0 -1 0 0 1 0 -1 0 0 -5.96047e-7 0 1 1.32455e-6 0 1 0 -1 5.96047e-7 0 -1 -1.32455e-6 0 -1 -5.96047e-7 0 -1 1.32455e-6 -1 -6.62274e-7 0 -1 -5.96047e-7 0 -1 1.32455e-6 0 5.96047e-7 0 -1 -1.32455e-6 0 -1 -5.96047e-7 0 -1 1.32455e-6 0 -1 0 1 5.96047e-7 0 1 -1.32455e-6 0 1 1.32455e-6</float_array>
          <technique_common>
            <accessor source="#Cube_002-mesh-normals-array" count="22" stride="3">
              <param name="X" type="float"/>
              <param name="Y" type="float"/>
              <param name="Z" type="float"/>
            </accessor>
          </technique_common>
        </source>
        <source id="Cube_002-mesh-map-0">
          <float_array id="Cube_002-mesh-map-0-array" count="576">0.125 0.75 0.125 0.75 0.125 0.5 0.125 0.75 0.125 0.5 0.125 0.5 0.625 0.5 0.625 0.25 0.625 0.25 0.625 0.5 0.625 0.25 0.625 0.5 0.625 0.75 0.625 0.75 0.625 0.5 0.625 0.75 0.625 0.5 0.625 0.5 0.125 0.5 0.125 0.5 0.125 0.75 0.125 0.5 0.125 0.75 0.125 0.75 0.625 0.5 0.625 0.5 0.375 0.5 0.625 0.5 0.375 0.5 0.375 0.5 0.375 0.75 0.375 0.75 0.625 0.75 0.375 0.75 0.625 0.75 0.625 0.75 0.375 0.5 0.375 0.5 0.375 0.75 0.375 0.5 0.375 0.75 0.375 0.75 0.375 0.7500001 0.375 0.75 0.125 0.75 0.375 0.7500001 0.125 0.75 0.125 0.75 0.625 0.75 0.625 1 0.625 1 0.625 0.75 0.625 1 0.625 0.75 0.625 0.25 0.625 0.25 0.625 0.5 0.625 0.25 0.625 0.5 0.625 0.5 0.625 0.5 0.625 0.75 0.625 0.75 0.625 0.5 0.625 0.75 0.625 0.5 0.625 0 0.625 0 0.625 0.25 0.625 0 0.625 0.25 0.625 0.25 0.625 1 0.625 0.75 0.625 0.75 0.625 1 0.625 0.75 0.625 1 0.625 0.7500001 0.625 0.75 0.375 0.75 0.625 0.7500001 0.375 0.75 0.375 0.75 0.375 0 0.375 0 0.625 0 0.375 0 0.625 0 0.625 0 0.375 0.25 0.375 0.25 0.625 0.25 0.375 0.25 0.625 0.25 0.625 0.25 0.625 0 0.625 0 0.375 0 0.625 0 0.375 0 0.375 0 0.625 0.25 0.625 0.25 0.625 0 0.625 0.25 0.625 0 0.625 0 0.625 0.25 0.625 0.25 0.375 0.25 0.625 0.25 0.375 0.25 0.375 0.25 0.375 0.5 0.375 0.5 0.625 0.5 0.375 0.5 0.625 0.5 0.625 0.5 0.125 0.5 0.125 0.5 0.375 0.5 0.125 0.5 0.375 0.5 0.375 0.5 0.375 0.75 0.375 0.5 0.375 0.5 0.375 0.75 0.375 0.5 0.375 0.75 0.125 0.75 0.375 0.75 0.375 0.75 0.125 0.75 0.375 0.75 0.125 0.75 0.375 0.5 0.375 0.5 0.125 0.5 0.375 0.5 0.125 0.5 0.125 0.5 0.6374999 0.7375 0.625 0.75 0.625 0.5 0.875 0.5 0.875 0.75 0.8625 0.7375 0.875 0.5 0.8625 0.7375 0.8625 0.5125 0.6374999 0.5125 0.6374999 0.7375 0.625 0.5 0.875 0.5 0.8625 0.5125 0.6374999 0.5125 0.625 0.5 0.875 0.5 0.6374999 0.5125 0.8625 0.7375 0.875 0.75 0.625 0.75 0.8625 0.7375 0.625 0.75 0.6374999 0.7375 0.3875 0.7625 0.375 0.75 0.625 0.75 0.625 0.75 0.625 1 0.6125 0.9875 0.6124999 0.7625 0.3875 0.7625 0.625 0.75 0.625 0.75 0.6125 0.9875 0.6124999 0.7625 0.6125 0.9875 0.625 1 0.375 1 0.375 1 0.375 0.75 0.3875 0.7625 0.3875 0.9875 0.6125 0.9875 0.375 1 0.375 1 0.3875 0.7625 0.3875 0.9875 0.625 0 0.625 0.25 0.6125 0.2375 0.625 0 0.6125 0.2375 0.6124999 0.01249998 0.3875 0.2375 0.6125 0.2375 0.625 0.25 0.375 0 0.625 0 0.6124999 0.01249998 0.375 0 0.6124999 0.01249998 0.3875 0.01249998 0.3875 0.2375 0.625 0.25 0.375 0.25 0.375 0 0.3875 0.01249998 0.3875 0.2375 0.375 0.25 0.375 0 0.3875 0.2375 0.3625 0.5125 0.1374999 0.5125 0.125 0.5 0.375 0.5 0.375 0.75 0.3625 0.7375 0.3625 0.5125 0.125 0.5 0.375 0.5 0.375 0.5 0.3625 0.7375 0.3625 0.5125 0.1374999 0.7375 0.3625 0.7375 0.375 0.75 0.125 0.75 0.125 0.5 0.1374999 0.5125 0.1374999 0.7375 0.375 0.75 0.125 0.75 0.125 0.75 0.1374999 0.5125 0.1374999 0.7375 0.3875 0.5125 0.375 0.5 0.625 0.5 0.625 0.5 0.625 0.75 0.6125 0.7375 0.6124999 0.5125 0.3875 0.5125 0.625 0.5 0.625 0.5 0.6125 0.7375 0.6124999 0.5125 0.6125 0.7375 0.625 0.75 0.375 0.75 0.375 0.75 0.375 0.5 0.3875 0.5125 0.3875 0.7375 0.6125 0.7375 0.375 0.75 0.375 0.75 0.3875 0.5125 0.3875 0.7375 0.625 0.25 0.625 0.5 0.6125 0.4875 0.625 0.25 0.6125 0.4875 0.6124999 0.2625 0.3875 0.4875 0.6125 0.4875 0.625 0.5 0.375 0.25 0.625 0.25 0.6124999 0.2625 0.375 0.25 0.6124999 0.2625 0.3875 0.2625 0.3875 0.4875 0.625 0.5 0.375 0.5 0.375 0.25 0.3875 0.2625 0.3875 0.4875 0.375 0.5 0.375 0.25 0.3875 0.4875</float_array>
          <technique_common>
            <accessor source="#Cube_002-mesh-map-0-array" count="288" stride="2">
              <param name="S" type="float"/>
              <param name="T" type="float"/>
            </accessor>
          </technique_common>
        </source>
        <source id="Cube_002-mesh-map-1">
          <float_array id="Cube_002-mesh-map-1-array" count="576">0 0 0 0 0 0 0 0 0 0 0 0 0 0 0 0 0 0 0 0 0 0 0 0 0 0 0 0 0 0 0 0 0 0 0 0 0 0 0 0 0 0 0 0 0 0 0 0 0 0 0 0 0 0 0 0 0 0 0 0 0 0 0 0 0 0 0 0 0 0 0 0 0 0 0 0 0 0 0 0 0 0 0 0 0 0 0 0 0 0 0 0 0 0 0 0 0 0 0 0 0 0 0 0 0 0 0 0 0 0 0 0 0 0 0 0 0 0 0 0 0 0 0 0 0 0 0 0 0 0 0 0 0 0 0 0 0 0 0 0 0 0 0 0 0 0 0 0 0 0 0 0 0 0 0 0 0 0 0 0 0 0 0 0 0 0 0 0 0 0 0 0 0 0 0 0 0 0 0 0 0 0 0 0 0 0 0 0 0 0 0 0 0 0 0 0 0 0 0 0 0 0 0 0 0 0 0 0 0 0 0 0 0 0 0 0 0 0 0 0 0 0 0 0 0 0 0 0 0 0 0 0 0 0 0 0 0 0 0 0 0 0 0 0 0 0 0 0 0 0 0 0 0 0 0 0 0 0 0 0 0 0 0 0 0 0 0 0 0 0 0 0 0 0 0 0 0 0 0 0 0 0 0 0 0 0 0 0 0 0 0 0 0 0 0 0 0 0 0 0 0 0 0 0 0 0 0 0 0 0 0 0 0 0 0 0 0 0 0 0 0 0 0 0 0 0 0 0 0 0 0 0 0 0 0 0 0 0 0 0 0 0 0 0 0 0 0 0 0 0 0 0 0 0 0 0 0 0 0 0 0 0 0 0 0 0 0 0 0 0 0 0 0 0 0 0 0 0 0 0 0 0 0 0 0 0 0 0 0 0 0 0 0 0 0 0 0 0 0 0 0 0 0 0 0 0 0 0 0 0 0 0 0 0 0 0 0 0 0 0 0 0 0 0 0 0 0 0 0 0 0 0 0 0 0 0 0 0 0 0 0 0 0 0 0 0 0 0 0 0 0 0 0 0 0 0 0 0 0 0 0 0 0 0 0 0 0 0 0 0 0 0 0 0 0 0 0 0 0 0 0 0 0 0 0 0 0 0 0 0 0 0 0 0 0 0 0 0 0 0 0 0 0 0 0 0 0 0 0 0 0 0 0 0 0 0 0 0 0 0 0 0 0 0 0 0 0 0 0 0 0 0 0 0 0 0 0 0 0 0 0 0 0 0 0 0 0 0 0 0 0 0 0 0 0 0 0 0 0 0 0 0 0 0 0 0 0 0 0 0 0 0 0 0 0 0</float_array>
          <technique_common>
            <accessor source="#Cube_002-mesh-map-1-array" count="288" stride="2">
              <param name="S" type="float"/>
              <param name="T" type="float"/>
            </accessor>
          </technique_common>
        </source>
        <vertices id="Cube_002-mesh-vertices">
          <input semantic="POSITION" source="#Cube_002-mesh-positions"/>
        </vertices>
        <triangles material="Material_001-material" count="96">
          <input semantic="VERTEX" source="#Cube_002-mesh-vertices" offset="0"/>
          <input semantic="NORMAL" source="#Cube_002-mesh-normals" offset="1"/>
          <input semantic="TEXCOORD" source="#Cube_002-mesh-map-0" offset="2" set="0"/>
          <input semantic="TEXCOORD" source="#Cube_002-mesh-map-1" offset="2" set="1"/>
          <p>96 0 0 2 0 1 12 0 2 96 0 3 12 0 4 99 0 5 28 1 6 15 1 7 142 1 8 28 1 9 142 1 10 147 1 11 132 1 12 22 1 13 28 1 14 132 1 15 28 1 16 125 1 17 117 2 18 13 2 19 3 2 20 117 2 21 3 2 22 110 2 23 126 3 24 29 3 25 25 3 26 126 3 27 25 3 28 128 3 29 122 4 30 19 4 31 23 4 32 122 4 33 23 4 34 133 4 35 129 0 36 26 0 37 20 0 38 129 0 39 20 0 40 123 0 41 89 0 42 20 0 43 2 0 44 89 0 45 2 0 46 81 0 47 23 4 48 7 4 49 77 4 50 23 4 51 77 4 52 68 4 53 71 3 54 16 3 55 29 3 56 71 3 57 29 3 58 75 3 59 27 5 60 21 5 61 66 5 62 27 5 63 66 5 64 73 5 65 79 2 66 9 2 67 17 2 68 79 2 69 17 2 70 72 2 71 5 1 72 22 1 73 84 1 74 5 1 75 84 1 76 90 1 77 83 5 78 21 5 79 18 5 80 83 5 81 18 5 82 86 5 83 82 2 84 4 2 85 9 2 86 82 2 87 9 2 88 93 2 89 98 3 90 11 3 91 16 3 92 98 3 93 16 3 94 107 3 95 103 4 96 8 4 97 1 4 98 103 4 99 1 4 100 95 4 101 106 1 102 15 1 103 6 1 104 106 1 105 6 1 106 102 1 107 145 2 108 17 2 109 14 2 110 145 2 111 14 2 112 138 2 113 139 5 114 24 5 115 27 5 116 139 5 117 27 5 118 146 5 119 137 0 120 12 0 121 26 0 122 137 0 123 26 0 124 141 0 125 18 5 126 24 5 127 111 5 128 18 5 129 111 5 130 118 5 131 0 4 132 19 4 133 120 4 134 0 4 135 120 4 136 108 4 137 113 3 138 25 3 139 10 3 140 113 3 141 10 3 142 115 3 143 67 0 144 38 0 145 30 0 146 50 6 147 59 6 148 76 6 149 50 7 150 76 7 151 70 7 152 74 0 153 67 0 154 30 0 155 50 0 156 70 0 157 74 0 158 30 0 159 50 0 160 74 0 161 78 0 162 62 0 163 40 0 164 78 0 165 40 0 166 69 0 167 87 3 168 44 3 169 39 3 170 39 8 171 60 8 172 91 8 173 85 3 174 87 3 175 39 3 176 39 9 177 91 9 178 85 9 179 92 3 180 61 3 181 64 3 182 64 10 183 45 10 184 88 10 185 80 3 186 92 3 187 64 3 188 64 11 189 88 11 190 80 11 191 58 5 192 49 5 193 105 5 194 58 5 195 105 5 196 101 5 197 97 12 198 104 12 199 48 12 200 63 13 201 57 13 202 100 13 203 63 14 204 100 14 205 94 14 206 97 5 207 48 5 208 53 5 209 63 5 210 94 5 211 97 5 212 53 5 213 63 5 214 97 5 215 112 1 216 114 1 217 54 1 218 34 15 219 43 15 220 119 15 221 112 1 222 54 1 223 34 1 224 34 16 225 119 16 226 112 16 227 109 1 228 121 1 229 46 1 230 65 17 231 56 17 232 116 17 233 109 1 234 46 1 235 65 1 236 65 18 237 116 18 238 109 18 239 131 2 240 37 2 241 33 2 242 33 2 243 42 2 244 135 2 245 127 2 246 131 2 247 33 2 248 33 2 249 135 2 250 127 2 251 134 2 252 41 2 253 47 2 254 47 2 255 36 2 256 130 2 257 124 2 258 134 2 259 47 2 260 47 2 261 130 2 262 124 2 263 51 19 264 31 19 265 148 19 266 51 20 267 148 20 268 143 20 269 140 4 270 149 4 271 32 4 272 55 4 273 52 4 274 144 4 275 55 4 276 144 4 277 136 4 278 140 4 279 32 4 280 35 4 281 55 21 282 136 21 283 140 21 284 35 4 285 55 4 286 140 4 287</p>
        </triangles>
      </mesh>
    </geometry>
  </library_geometries>
  <library_visual_scenes>
    <visual_scene id="Scene" name="Scene">
      <node id="Cube" name="Cube" type="NODE">
        <matrix sid="transform">1 0 0 0 0 1 0 0 0 0 1 0 0 0 0 1</matrix>
        <instance_geometry url="#Cube_002-mesh" name="Cube">
          <bind_material>
            <technique_common>
              <instance_material symbol="Material_001-material" target="#Material_001-material">
                <bind_vertex_input semantic="UVMap" input_semantic="TEXCOORD" input_set="0"/>
                <bind_vertex_input semantic="UVMap.001" input_semantic="TEXCOORD" input_set="1"/>
              </instance_material>
            </technique_common>
          </bind_material>
        </instance_geometry>
      </node>
    </visual_scene>
  </library_visual_scenes>
  <scene>
    <instance_visual_scene url="#Scene"/>
  </scene>
</COLLADA>